wrapper.vcd
$date
	Tue Apr  9 19:30:13 2019
$end
$version
	Icarus Verilog
$end
$timescale
	1s
$end
$scope module tb_wrapper $end
$var wire 3 ! data_type [2:0] $end
$var wire 8 " data_out [7:0] $end
$var reg 1 # clk $end
$var reg 1 $ rst $end
$scope module w1 $end
$var wire 1 # clk $end
$var wire 1 $ rst $end
$var wire 1 % result_ready_cpu $end
$var wire 8 & result_out_cpu [7:0] $end
$var wire 8 ' pc_out_cpu [7:0] $end
$var wire 8 ( operand_B [7:0] $end
$var wire 8 ) operand_A [7:0] $end
$var wire 8 * opcode_out_cpu [7:0] $end
$var wire 1 + data_out_cpu $end
$var wire 1 , carry_out_cpu $end
$var wire 1 - borrow_out_cpu $end
$var reg 8 . data_out [7:0] $end
$var reg 3 / data_type [2:0] $end
$var reg 1 0 next_out_cpu $end
$var reg 1 1 rst_cpu $end
$scope module cpu1 $end
$var wire 1 # clk $end
$var wire 1 0 next_out $end
$var wire 1 1 rst $end
$var wire 1 2 zero_out_alu $end
$var wire 1 3 result_ready_alu $end
$var wire 8 4 result_out_alu [7:0] $end
$var wire 1 5 overflow_out_alu $end
$var wire 1 6 negative_out_alu $end
$var wire 1 7 carry_out_alu $end
$var wire 1 8 borrow_out_alu $end
$var reg 1 9 borrow $end
$var reg 1 - borrow_out_cpu $end
$var reg 1 : carry $end
$var reg 1 , carry_out_cpu $end
$var reg 1 + data_out $end
$var reg 1 ; enable_alu $end
$var reg 1 < input_ready_alu $end
$var reg 8 = opcode [7:0] $end
$var reg 5 > opcode_alu [4:0] $end
$var reg 8 ? operand_A [7:0] $end
$var reg 8 @ operand_A_alu [7:0] $end
$var reg 8 A operand_A_out [7:0] $end
$var reg 8 B operand_B_alu [7:0] $end
$var reg 8 C operand_B_out [7:0] $end
$var reg 8 D pc_out [7:0] $end
$var reg 8 E program_counter [7:0] $end
$var reg 8 F result_out_cpu [7:0] $end
$var reg 1 % result_ready $end
$var reg 1 G rst_in $end
$var reg 16 H temp_16 [15:0] $end
$var reg 1 I temp_state2 $end
$var reg 8 J this_instr [7:0] $end
$var integer 32 K iterator [31:0] $end
$var integer 32 L state [31:0] $end
$scope module alu1 $end
$var wire 1 9 borrow_in $end
$var wire 1 : carry_in $end
$var wire 1 # clk $end
$var wire 1 ; enable $end
$var wire 1 < input_ready $end
$var wire 5 M opcode [4:0] $end
$var wire 8 N operand_A [7:0] $end
$var wire 8 O operand_B [7:0] $end
$var wire 1 G rst $end
$var wire 1 2 zero $end
$var wire 1 6 negative $end
$var reg 1 8 borrow_out $end
$var reg 1 7 carry_out $end
$var reg 1 P finished $end
$var reg 1 5 overflow $end
$var reg 8 Q result_out [7:0] $end
$var reg 1 3 result_ready $end
$var reg 1 R running $end
$var reg 8 S temp [7:0] $end
$upscope $end
$upscope $end
$upscope $end
$upscope $end
$enddefinitions $end
#0
$dumpvars
bx S
xR
bx Q
xP
bx O
bx N
bx M
bx L
bx K
bx J
xI
bx H
xG
bx F
bx E
bx D
bx C
bx B
bx A
bx @
bx ?
bx >
bx =
x<
x;
x:
x9
x8
x7
x6
x5
bx 4
x3
x2
x1
x0
bx /
bx .
x-
x,
x+
bx *
bx )
bx (
bx '
bx &
x%
1$
0#
bx "
bx !
$end
#5
1;
0G
10
11
b0 !
b0 /
1#
#10
0#
#15
0I
09
0:
0+
1G
b0 L
b0 E
b0 J
b1000 K
1#
#20
0#
#25
12
0R
1P
05
06
b0 4
b0 Q
03
07
b1000 K
1#
#30
0#
#35
b1000 K
1#
#40
0#
#45
b1000 K
1#
#50
0#
0$
#55
01
00
b1000 K
1#
#60
0#
#65
b1 L
b0 ?
0G
b0 H
1#
#70
0#
#75
b11 L
1#
#80
0#
#85
b1 E
b100 L
0<
1#
#90
0#
#95
1+
1%
0,
b0 &
b0 F
b1 '
b1 D
b0 *
b0 =
1#
#100
0#
#105
b1 !
b1 /
1#
#110
0#
#115
b10 !
b10 /
1#
#120
0#
#125
b0 "
b0 .
b11 !
b11 /
1#
#130
0#
#135
b100 !
b100 /
1#
#140
0#
#145
b0x "
b0x .
b101 !
b101 /
1#
#150
0#
#155
10
b1 "
b1 .
b110 !
b110 /
1#
#160
0#
#165
0+
b0 L
00
b0 "
b0 .
b0 !
b0 /
1#
#170
0#
#175
b1 L
b110 J
b11000000000 H
1#
#180
0#
#185
b11 L
1#
#190
0#
#195
b10 E
b100 L
1#
#200
0#
#205
1+
b10 '
b10 D
b110 *
b110 =
1#
#210
0#
#215
bx "
bx .
b1 !
b1 /
1#
#220
0#
#225
b10 !
b10 /
1#
#230
0#
#235
b0 "
b0 .
b11 !
b11 /
1#
#240
0#
#245
b100 !
b100 /
1#
#250
0#
#255
b0x "
b0x .
b101 !
b101 /
1#
#260
0#
#265
10
b10 "
b10 .
b110 !
b110 /
1#
#270
0#
#275
00
0+
b0 L
b110 "
b110 .
b0 !
b0 /
1#
#280
0#
#285
b1 L
b1 ?
b1110 J
b111000000001 H
1#
#290
0#
#295
b11 L
1#
#300
0#
#305
b11 E
b100 L
1#
#310
0#
#315
1+
b11 '
b11 D
b1110 *
b1110 =
1#
#320
0#
#325
bx "
bx .
b1 !
b1 /
1#
#330
0#
#335
b10 !
b10 /
1#
#340
0#
#345
b0 "
b0 .
b11 !
b11 /
1#
#350
0#
#355
b100 !
b100 /
1#
#360
0#
#365
b0x "
b0x .
b101 !
b101 /
1#
#370
0#
#375
10
b11 "
b11 .
b110 !
b110 /
1#
#380
0#
#385
0+
b0 L
00
b1110 "
b1110 .
b0 !
b0 /
1#
#390
0#
#395
b1 L
b0 ?
b10000001 J
b1000000100000000 H
1#
#400
0#
#405
b0 >
b0 M
b1 B
b1 O
b0 @
b0 N
b10 L
1#
#410
0#
#415
1I
1<
1#
#420
0#
#425
13
b1 4
b1 Q
08
b11 L
0I
0<
b1 S
1#
#430
0#
#435
b100 E
b100 L
1#
#440
0#
#445
1+
0-
b1 &
b1 F
b1 (
b1 C
b0 )
b0 A
b100 '
b100 D
b10000001 *
b10000001 =
1#
#450
0#
#455
b0 "
b0 .
b1 !
b1 /
1#
#460
0#
#465
b1 "
b1 .
b10 !
b10 /
1#
#470
0#
#475
b11 !
b11 /
1#
#480
0#
#485
b0 "
b0 .
b100 !
b100 /
1#
#490
0#
#495
b101 !
b101 /
1#
#500
0#
#505
10
b100 "
b100 .
b110 !
b110 /
1#
#510
0#
#515
00
0+
b0 L
b10000001 "
b10000001 .
b0 !
b0 /
1#
#520
0#
#525
b1 L
1#
#530
0#
#535
b1 @
b1 N
b10 L
1#
#540
0#
#545
1I
1<
1#
#550
0#
#555
b11 L
0I
0<
b10 4
b10 Q
13
b10 S
1#
#560
0#
#565
b101 E
b100 L
1#
#570
0#
#575
1+
b10 &
b10 F
b1 )
b1 A
b101 '
b101 D
1#
#580
0#
#585
b1 "
b1 .
b1 !
b1 /
1#
#590
0#
#595
b10 !
b10 /
1#
#600
0#
#605
b10 "
b10 .
b11 !
b11 /
1#
#610
0#
#615
b0 "
b0 .
b100 !
b100 /
1#
#620
0#
#625
b101 !
b101 /
1#
#630
0#
#635
10
b101 "
b101 .
b110 !
b110 /
1#
#640
0#
#645
0+
b0 L
00
b10000001 "
b10000001 .
b0 !
b0 /
1#
#650
0#
#655
b1 L
b100 ?
b11000011 J
b1100001100000100 H
1#
#660
0#
#665
b11 E
b11 L
1#
#670
0#
#675
b100 E
b100 L
1#
#680
0#
#685
1+
b100 '
b100 D
b11000011 *
b11000011 =
1#
#690
0#
#695
b1 "
b1 .
b1 !
b1 /
1#
#700
0#
#705
b10 !
b10 /
1#
#710
0#
#715
b10 "
b10 .
b11 !
b11 /
1#
#720
0#
#725
b0 "
b0 .
b100 !
b100 /
1#
#730
0#
#735
b101 !
b101 /
1#
#740
0#
#745
10
b100 "
b100 .
b110 !
b110 /
1#
#750
0#
#755
00
0+
b0 L
b11000011 "
b11000011 .
b0 !
b0 /
1#
#760
0#
#765
b1 L
b0 ?
b10000001 J
b1000000100000000 H
1#
#770
0#
#775
b10 @
b10 N
b10 L
1#
#780
0#
#785
1I
1<
1#
#790
0#
#795
b11 L
0I
0<
b11 4
b11 Q
13
b11 S
1#
#800
0#
#805
b101 E
b100 L
1#
#810
0#
#815
1+
b11 &
b11 F
b10 )
b10 A
b101 '
b101 D
b10000001 *
b10000001 =
1#
#820
0#
#825
b10 "
b10 .
b1 !
b1 /
1#
#830
0#
#835
b1 "
b1 .
b10 !
b10 /
1#
#840
0#
#845
b11 "
b11 .
b11 !
b11 /
1#
#850
0#
#855
b0 "
b0 .
b100 !
b100 /
1#
#860
0#
#865
b101 !
b101 /
1#
#870
0#
#875
10
b101 "
b101 .
b110 !
b110 /
1#
#880
0#
#885
0+
b0 L
00
b10000001 "
b10000001 .
b0 !
b0 /
1#
#890
0#
#895
b1 L
b100 ?
b11000011 J
b1100001100000100 H
1#
#900
0#
#905
b11 E
b11 L
1#
#910
0#
#915
b100 E
b100 L
1#
#920
0#
#925
1+
b100 '
b100 D
b11000011 *
b11000011 =
1#
#930
0#
#935
b10 "
b10 .
b1 !
b1 /
1#
#940
0#
#945
b1 "
b1 .
b10 !
b10 /
1#
#950
0#
#955
b11 "
b11 .
b11 !
b11 /
1#
#960
0#
#965
b0 "
b0 .
b100 !
b100 /
1#
#970
0#
#975
b101 !
b101 /
1#
#980
0#
#985
10
b100 "
b100 .
b110 !
b110 /
1#
#990
0#
#995
00
0+
b0 L
b11000011 "
b11000011 .
b0 !
b0 /
1#
#1000
0#
#1005
b1 L
b0 ?
b10000001 J
b1000000100000000 H
1#
#1010
0#
#1015
b11 @
b11 N
b10 L
1#
#1020
0#
#1025
1I
1<
1#
#1030
0#
#1035
b11 L
0I
0<
b100 4
b100 Q
13
b100 S
1#
#1040
0#
#1045
b101 E
b100 L
1#
#1050
0#
#1055
1+
b100 &
b100 F
b11 )
b11 A
b101 '
b101 D
b10000001 *
b10000001 =
1#
#1060
0#
#1065
b11 "
b11 .
b1 !
b1 /
1#
#1070
0#
#1075
b1 "
b1 .
b10 !
b10 /
1#
#1080
0#
#1085
b100 "
b100 .
b11 !
b11 /
1#
#1090
0#
#1095
b0 "
b0 .
b100 !
b100 /
1#
#1100
0#
#1105
b101 !
b101 /
1#
#1110
0#
#1115
10
b101 "
b101 .
b110 !
b110 /
1#
#1120
0#
#1125
0+
b0 L
00
b10000001 "
b10000001 .
b0 !
b0 /
1#
#1130
0#
#1135
b1 L
b100 ?
b11000011 J
b1100001100000100 H
1#
#1140
0#
#1145
b11 E
b11 L
1#
#1150
0#
#1155
b100 E
b100 L
1#
#1160
0#
#1165
1+
b100 '
b100 D
b11000011 *
b11000011 =
1#
#1170
0#
#1175
b11 "
b11 .
b1 !
b1 /
1#
#1180
0#
#1185
b1 "
b1 .
b10 !
b10 /
1#
#1190
0#
#1195
b100 "
b100 .
b11 !
b11 /
1#
#1200
0#
#1205
b0 "
b0 .
b100 !
b100 /
1#
#1210
0#
#1215
b101 !
b101 /
1#
#1220
0#
#1225
10
b100 "
b100 .
b110 !
b110 /
1#
#1230
0#
#1235
00
0+
b0 L
b11000011 "
b11000011 .
b0 !
b0 /
1#
#1240
0#
#1245
b1 L
b0 ?
b10000001 J
b1000000100000000 H
1#
#1250
0#
#1255
b100 @
b100 N
b10 L
1#
#1260
0#
#1265
1I
1<
1#
#1270
0#
#1275
b11 L
0I
0<
b101 4
b101 Q
13
b101 S
1#
#1280
0#
#1285
b101 E
b100 L
1#
#1290
0#
#1295
1+
b101 &
b101 F
b100 )
b100 A
b101 '
b101 D
b10000001 *
b10000001 =
1#
#1300
0#
#1305
b100 "
b100 .
b1 !
b1 /
1#
#1310
0#
#1315
b1 "
b1 .
b10 !
b10 /
1#
#1320
0#
#1325
b101 "
b101 .
b11 !
b11 /
1#
#1330
0#
#1335
b0 "
b0 .
b100 !
b100 /
1#
#1340
0#
#1345
b101 !
b101 /
1#
#1350
0#
#1355
10
b101 "
b101 .
b110 !
b110 /
1#
#1360
0#
#1365
0+
b0 L
00
b10000001 "
b10000001 .
b0 !
b0 /
1#
#1370
0#
#1375
b1 L
b100 ?
b11000011 J
b1100001100000100 H
1#
#1380
0#
#1385
b11 E
b11 L
1#
#1390
0#
#1395
b100 E
b100 L
1#
#1400
0#
#1405
1+
b100 '
b100 D
b11000011 *
b11000011 =
1#
#1410
0#
#1415
b100 "
b100 .
b1 !
b1 /
1#
#1420
0#
#1425
b1 "
b1 .
b10 !
b10 /
1#
#1430
0#
#1435
b101 "
b101 .
b11 !
b11 /
1#
#1440
0#
#1445
b0 "
b0 .
b100 !
b100 /
1#
#1450
0#
#1455
b101 !
b101 /
1#
#1460
0#
#1465
10
b100 "
b100 .
b110 !
b110 /
1#
#1470
0#
#1475
00
0+
b0 L
b11000011 "
b11000011 .
b0 !
b0 /
1#
#1480
0#
#1485
b1 L
b0 ?
b10000001 J
b1000000100000000 H
1#
#1490
0#
#1495
b101 @
b101 N
b10 L
1#
#1500
0#
#1505
1I
1<
1#
#1510
0#
#1515
b11 L
0I
0<
b110 4
b110 Q
13
b110 S
1#
#1520
0#
#1525
b101 E
b100 L
1#
#1530
0#
#1535
1+
b110 &
b110 F
b101 )
b101 A
b101 '
b101 D
b10000001 *
b10000001 =
1#
#1540
0#
#1545
b101 "
b101 .
b1 !
b1 /
1#
#1550
0#
#1555
b1 "
b1 .
b10 !
b10 /
1#
#1560
0#
#1565
b110 "
b110 .
b11 !
b11 /
1#
#1570
0#
#1575
b0 "
b0 .
b100 !
b100 /
1#
#1580
0#
#1585
b101 !
b101 /
1#
#1590
0#
#1595
10
b101 "
b101 .
b110 !
b110 /
1#
#1600
0#
#1605
0+
b0 L
00
b10000001 "
b10000001 .
b0 !
b0 /
1#
#1610
0#
#1615
b1 L
b100 ?
b11000011 J
b1100001100000100 H
1#
#1620
0#
#1625
b11 E
b11 L
1#
#1630
0#
#1635
b100 E
b100 L
1#
#1640
0#
#1645
1+
b100 '
b100 D
b11000011 *
b11000011 =
1#
#1650
0#
#1655
b101 "
b101 .
b1 !
b1 /
1#
#1660
0#
#1665
b1 "
b1 .
b10 !
b10 /
1#
#1670
0#
#1675
b110 "
b110 .
b11 !
b11 /
1#
#1680
0#
#1685
b0 "
b0 .
b100 !
b100 /
1#
#1690
0#
#1695
b101 !
b101 /
1#
#1700
0#
#1705
10
b100 "
b100 .
b110 !
b110 /
1#
#1710
0#
#1715
00
0+
b0 L
b11000011 "
b11000011 .
b0 !
b0 /
1#
#1720
0#
#1725
b1 L
b0 ?
b10000001 J
b1000000100000000 H
1#
#1730
0#
#1735
b110 @
b110 N
b10 L
1#
#1740
0#
#1745
1I
1<
1#
#1750
0#
#1755
b11 L
0I
0<
b111 4
b111 Q
13
b111 S
1#
#1760
0#
#1765
b101 E
b100 L
1#
#1770
0#
#1775
1+
b111 &
b111 F
b110 )
b110 A
b101 '
b101 D
b10000001 *
b10000001 =
1#
#1780
0#
#1785
b110 "
b110 .
b1 !
b1 /
1#
#1790
0#
#1795
b1 "
b1 .
b10 !
b10 /
1#
#1800
0#
#1805
b111 "
b111 .
b11 !
b11 /
1#
#1810
0#
#1815
b0 "
b0 .
b100 !
b100 /
1#
#1820
0#
#1825
b101 !
b101 /
1#
#1830
0#
#1835
10
b101 "
b101 .
b110 !
b110 /
1#
#1840
0#
#1845
0+
b0 L
00
b10000001 "
b10000001 .
b0 !
b0 /
1#
#1850
0#
#1855
b1 L
b100 ?
b11000011 J
b1100001100000100 H
1#
#1860
0#
#1865
b11 E
b11 L
1#
#1870
0#
#1875
b100 E
b100 L
1#
#1880
0#
#1885
1+
b100 '
b100 D
b11000011 *
b11000011 =
1#
#1890
0#
#1895
b110 "
b110 .
b1 !
b1 /
1#
#1900
0#
#1905
b1 "
b1 .
b10 !
b10 /
1#
#1910
0#
#1915
b111 "
b111 .
b11 !
b11 /
1#
#1920
0#
#1925
b0 "
b0 .
b100 !
b100 /
1#
#1930
0#
#1935
b101 !
b101 /
1#
#1940
0#
#1945
10
b100 "
b100 .
b110 !
b110 /
1#
#1950
0#
#1955
00
0+
b0 L
b11000011 "
b11000011 .
b0 !
b0 /
1#
#1960
0#
#1965
b1 L
b0 ?
b10000001 J
b1000000100000000 H
1#
#1970
0#
#1975
b111 @
b111 N
b10 L
1#
#1980
0#
#1985
1I
1<
1#
#1990
0#
#1995
b11 L
0I
0<
b1000 4
b1000 Q
13
b1000 S
1#
#2000
0#
#2005
b101 E
b100 L
1#
#2010
0#
#2015
1+
b1000 &
b1000 F
b111 )
b111 A
b101 '
b101 D
b10000001 *
b10000001 =
1#
#2020
0#
#2025
b111 "
b111 .
b1 !
b1 /
1#
#2030
0#
#2035
b1 "
b1 .
b10 !
b10 /
1#
#2040
0#
#2045
b1000 "
b1000 .
b11 !
b11 /
1#
#2050
0#
#2055
b0 "
b0 .
b100 !
b100 /
1#
#2060
0#
#2065
b101 !
b101 /
1#
#2070
0#
#2075
10
b101 "
b101 .
b110 !
b110 /
1#
#2080
0#
#2085
0+
b0 L
00
b10000001 "
b10000001 .
b0 !
b0 /
1#
#2090
0#
#2095
b1 L
b100 ?
b11000011 J
b1100001100000100 H
1#
#2100
0#
#2105
b11 E
b11 L
1#
#2110
0#
#2115
b100 E
b100 L
1#
#2120
0#
#2125
1+
b100 '
b100 D
b11000011 *
b11000011 =
1#
#2130
0#
#2135
b111 "
b111 .
b1 !
b1 /
1#
#2140
0#
#2145
b1 "
b1 .
b10 !
b10 /
1#
#2150
0#
#2155
b1000 "
b1000 .
b11 !
b11 /
1#
#2160
0#
#2165
b0 "
b0 .
b100 !
b100 /
1#
#2170
0#
#2175
b101 !
b101 /
1#
#2180
0#
#2185
10
b100 "
b100 .
b110 !
b110 /
1#
#2190
0#
#2195
00
0+
b0 L
b11000011 "
b11000011 .
b0 !
b0 /
1#
#2200
0#
#2205
b1 L
b0 ?
b10000001 J
b1000000100000000 H
1#
#2210
0#
#2215
b1000 @
b1000 N
b10 L
1#
#2220
0#
#2225
1I
1<
1#
#2230
0#
#2235
b11 L
0I
0<
b1001 4
b1001 Q
13
b1001 S
1#
#2240
0#
#2245
b101 E
b100 L
1#
#2250
0#
#2255
1+
b1001 &
b1001 F
b1000 )
b1000 A
b101 '
b101 D
b10000001 *
b10000001 =
1#
#2260
0#
#2265
b1000 "
b1000 .
b1 !
b1 /
1#
#2270
0#
#2275
b1 "
b1 .
b10 !
b10 /
1#
#2280
0#
#2285
b1001 "
b1001 .
b11 !
b11 /
1#
#2290
0#
#2295
b0 "
b0 .
b100 !
b100 /
1#
#2300
0#
#2305
b101 !
b101 /
1#
#2310
0#
#2315
10
b101 "
b101 .
b110 !
b110 /
1#
#2320
0#
#2325
0+
b0 L
00
b10000001 "
b10000001 .
b0 !
b0 /
1#
#2330
0#
#2335
b1 L
b100 ?
b11000011 J
b1100001100000100 H
1#
#2340
0#
#2345
b11 E
b11 L
1#
#2350
0#
#2355
b100 E
b100 L
1#
#2360
0#
#2365
1+
b100 '
b100 D
b11000011 *
b11000011 =
1#
#2370
0#
#2375
b1000 "
b1000 .
b1 !
b1 /
1#
#2380
0#
#2385
b1 "
b1 .
b10 !
b10 /
1#
#2390
0#
#2395
b1001 "
b1001 .
b11 !
b11 /
1#
#2400
0#
#2405
b0 "
b0 .
b100 !
b100 /
1#
#2410
0#
#2415
b101 !
b101 /
1#
#2420
0#
#2425
10
b100 "
b100 .
b110 !
b110 /
1#
#2430
0#
#2435
00
0+
b0 L
b11000011 "
b11000011 .
b0 !
b0 /
1#
#2440
0#
#2445
b1 L
b0 ?
b10000001 J
b1000000100000000 H
1#
#2450
0#
#2455
b1001 @
b1001 N
b10 L
1#
#2460
0#
#2465
1I
1<
1#
#2470
0#
#2475
b11 L
0I
0<
b1010 4
b1010 Q
13
b1010 S
1#
#2480
0#
#2485
b101 E
b100 L
1#
#2490
0#
#2495
1+
b1010 &
b1010 F
b1001 )
b1001 A
b101 '
b101 D
b10000001 *
b10000001 =
1#
#2500
0#
#2505
b1001 "
b1001 .
b1 !
b1 /
1#
#2510
0#
#2515
b1 "
b1 .
b10 !
b10 /
1#
#2520
0#
#2525
b1010 "
b1010 .
b11 !
b11 /
1#
#2530
0#
#2535
b0 "
b0 .
b100 !
b100 /
1#
#2540
0#
#2545
b101 !
b101 /
1#
#2550
0#
#2555
10
b101 "
b101 .
b110 !
b110 /
1#
#2560
0#
#2565
0+
b0 L
00
b10000001 "
b10000001 .
b0 !
b0 /
1#
#2570
0#
#2575
b1 L
b100 ?
b11000011 J
b1100001100000100 H
1#
#2580
0#
#2585
b11 E
b11 L
1#
#2590
0#
#2595
b100 E
b100 L
1#
#2600
0#
#2605
1+
b100 '
b100 D
b11000011 *
b11000011 =
1#
#2610
0#
#2615
b1001 "
b1001 .
b1 !
b1 /
1#
#2620
0#
#2625
b1 "
b1 .
b10 !
b10 /
1#
#2630
0#
#2635
b1010 "
b1010 .
b11 !
b11 /
1#
#2640
0#
#2645
b0 "
b0 .
b100 !
b100 /
1#
#2650
0#
#2655
b101 !
b101 /
1#
#2660
0#
#2665
10
b100 "
b100 .
b110 !
b110 /
1#
#2670
0#
#2675
00
0+
b0 L
b11000011 "
b11000011 .
b0 !
b0 /
1#
#2680
0#
#2685
b1 L
b0 ?
b10000001 J
b1000000100000000 H
1#
#2690
0#
#2695
b1010 @
b1010 N
b10 L
1#
#2700
0#
#2705
1I
1<
1#
#2710
0#
#2715
b11 L
0I
0<
b1011 4
b1011 Q
13
b1011 S
1#
#2720
0#
#2725
b101 E
b100 L
1#
#2730
0#
#2735
1+
b1011 &
b1011 F
b1010 )
b1010 A
b101 '
b101 D
b10000001 *
b10000001 =
1#
#2740
0#
#2745
b1010 "
b1010 .
b1 !
b1 /
1#
#2750
0#
#2755
b1 "
b1 .
b10 !
b10 /
1#
#2760
0#
#2765
b1011 "
b1011 .
b11 !
b11 /
1#
#2770
0#
#2775
b0 "
b0 .
b100 !
b100 /
1#
#2780
0#
#2785
b101 !
b101 /
1#
#2790
0#
#2795
10
b101 "
b101 .
b110 !
b110 /
1#
#2800
0#
#2805
0+
b0 L
00
b10000001 "
b10000001 .
b0 !
b0 /
1#
#2810
0#
#2815
b1 L
b100 ?
b11000011 J
b1100001100000100 H
1#
#2820
0#
#2825
b11 E
b11 L
1#
#2830
0#
#2835
b100 E
b100 L
1#
#2840
0#
#2845
1+
b100 '
b100 D
b11000011 *
b11000011 =
1#
#2850
0#
#2855
b1010 "
b1010 .
b1 !
b1 /
1#
#2860
0#
#2865
b1 "
b1 .
b10 !
b10 /
1#
#2870
0#
#2875
b1011 "
b1011 .
b11 !
b11 /
1#
#2880
0#
#2885
b0 "
b0 .
b100 !
b100 /
1#
#2890
0#
#2895
b101 !
b101 /
1#
#2900
0#
#2905
10
b100 "
b100 .
b110 !
b110 /
1#
#2910
0#
#2915
00
0+
b0 L
b11000011 "
b11000011 .
b0 !
b0 /
1#
#2920
0#
#2925
b1 L
b0 ?
b10000001 J
b1000000100000000 H
1#
#2930
0#
#2935
b1011 @
b1011 N
b10 L
1#
#2940
0#
#2945
1I
1<
1#
#2950
0#
#2955
b11 L
0I
0<
b1100 4
b1100 Q
13
b1100 S
1#
#2960
0#
#2965
b101 E
b100 L
1#
#2970
0#
#2975
1+
b1100 &
b1100 F
b1011 )
b1011 A
b101 '
b101 D
b10000001 *
b10000001 =
1#
#2980
0#
#2985
b1011 "
b1011 .
b1 !
b1 /
1#
#2990
0#
#2995
b1 "
b1 .
b10 !
b10 /
1#
#3000
0#
#3005
b1100 "
b1100 .
b11 !
b11 /
1#
#3010
0#
#3015
b0 "
b0 .
b100 !
b100 /
1#
#3020
0#
#3025
b101 !
b101 /
1#
#3030
0#
#3035
10
b101 "
b101 .
b110 !
b110 /
1#
#3040
0#
#3045
0+
b0 L
00
b10000001 "
b10000001 .
b0 !
b0 /
1#
#3050
0#
#3055
b1 L
b100 ?
b11000011 J
b1100001100000100 H
1#
#3060
0#
#3065
b11 E
b11 L
1#
#3070
0#
#3075
b100 E
b100 L
1#
#3080
0#
#3085
1+
b100 '
b100 D
b11000011 *
b11000011 =
1#
#3090
0#
#3095
b1011 "
b1011 .
b1 !
b1 /
1#
#3100
0#
#3105
b1 "
b1 .
b10 !
b10 /
1#
#3110
0#
#3115
b1100 "
b1100 .
b11 !
b11 /
1#
#3120
0#
#3125
b0 "
b0 .
b100 !
b100 /
1#
#3130
0#
#3135
b101 !
b101 /
1#
#3140
0#
#3145
10
b100 "
b100 .
b110 !
b110 /
1#
#3150
0#
#3155
00
0+
b0 L
b11000011 "
b11000011 .
b0 !
b0 /
1#
#3160
0#
#3165
b1 L
b0 ?
b10000001 J
b1000000100000000 H
1#
#3170
0#
#3175
b1100 @
b1100 N
b10 L
1#
#3180
0#
#3185
1I
1<
1#
#3190
0#
#3195
b11 L
0I
0<
b1101 4
b1101 Q
13
b1101 S
1#
#3200
0#
#3205
b101 E
b100 L
1#
#3210
0#
#3215
1+
b1101 &
b1101 F
b1100 )
b1100 A
b101 '
b101 D
b10000001 *
b10000001 =
1#
#3220
0#
#3225
b1100 "
b1100 .
b1 !
b1 /
1#
#3230
0#
#3235
b1 "
b1 .
b10 !
b10 /
1#
#3240
0#
#3245
b1101 "
b1101 .
b11 !
b11 /
1#
#3250
0#
#3255
b0 "
b0 .
b100 !
b100 /
1#
#3260
0#
#3265
b101 !
b101 /
1#
#3270
0#
#3275
10
b101 "
b101 .
b110 !
b110 /
1#
#3280
0#
#3285
0+
b0 L
00
b10000001 "
b10000001 .
b0 !
b0 /
1#
#3290
0#
#3295
b1 L
b100 ?
b11000011 J
b1100001100000100 H
1#
#3300
0#
#3305
b11 E
b11 L
1#
#3310
0#
#3315
b100 E
b100 L
1#
#3320
0#
#3325
1+
b100 '
b100 D
b11000011 *
b11000011 =
1#
#3330
0#
#3335
b1100 "
b1100 .
b1 !
b1 /
1#
#3340
0#
#3345
b1 "
b1 .
b10 !
b10 /
1#
#3350
0#
#3355
b1101 "
b1101 .
b11 !
b11 /
1#
#3360
0#
#3365
b0 "
b0 .
b100 !
b100 /
1#
#3370
0#
#3375
b101 !
b101 /
1#
#3380
0#
#3385
10
b100 "
b100 .
b110 !
b110 /
1#
#3390
0#
#3395
00
0+
b0 L
b11000011 "
b11000011 .
b0 !
b0 /
1#
#3400
0#
#3405
b1 L
b0 ?
b10000001 J
b1000000100000000 H
1#
#3410
0#
#3415
b1101 @
b1101 N
b10 L
1#
#3420
0#
#3425
1I
1<
1#
#3430
0#
#3435
b11 L
0I
0<
b1110 4
b1110 Q
13
b1110 S
1#
#3440
0#
#3445
b101 E
b100 L
1#
#3450
0#
#3455
1+
b1110 &
b1110 F
b1101 )
b1101 A
b101 '
b101 D
b10000001 *
b10000001 =
1#
#3460
0#
#3465
b1101 "
b1101 .
b1 !
b1 /
1#
#3470
0#
#3475
b1 "
b1 .
b10 !
b10 /
1#
#3480
0#
#3485
b1110 "
b1110 .
b11 !
b11 /
1#
#3490
0#
#3495
b0 "
b0 .
b100 !
b100 /
1#
#3500
0#
#3505
b101 !
b101 /
1#
#3510
0#
#3515
10
b101 "
b101 .
b110 !
b110 /
1#
#3520
0#
#3525
0+
b0 L
00
b10000001 "
b10000001 .
b0 !
b0 /
1#
#3530
0#
#3535
b1 L
b100 ?
b11000011 J
b1100001100000100 H
1#
#3540
0#
#3545
b11 E
b11 L
1#
#3550
0#
#3555
b100 E
b100 L
1#
#3560
0#
#3565
1+
b100 '
b100 D
b11000011 *
b11000011 =
1#
#3570
0#
#3575
b1101 "
b1101 .
b1 !
b1 /
1#
#3580
0#
#3585
b1 "
b1 .
b10 !
b10 /
1#
#3590
0#
#3595
b1110 "
b1110 .
b11 !
b11 /
1#
#3600
0#
#3605
b0 "
b0 .
b100 !
b100 /
1#
#3610
0#
#3615
b101 !
b101 /
1#
#3620
0#
#3625
10
b100 "
b100 .
b110 !
b110 /
1#
#3630
0#
#3635
00
0+
b0 L
b11000011 "
b11000011 .
b0 !
b0 /
1#
#3640
0#
#3645
b1 L
b0 ?
b10000001 J
b1000000100000000 H
1#
#3650
0#
#3655
b1110 @
b1110 N
b10 L
1#
#3660
0#
#3665
1I
1<
1#
#3670
0#
#3675
b11 L
0I
0<
b1111 4
b1111 Q
13
b1111 S
1#
#3680
0#
#3685
b101 E
b100 L
1#
#3690
0#
#3695
1+
b1111 &
b1111 F
b1110 )
b1110 A
b101 '
b101 D
b10000001 *
b10000001 =
1#
#3700
0#
#3705
b1110 "
b1110 .
b1 !
b1 /
1#
#3710
0#
#3715
b1 "
b1 .
b10 !
b10 /
1#
#3720
0#
#3725
b1111 "
b1111 .
b11 !
b11 /
1#
#3730
0#
#3735
b0 "
b0 .
b100 !
b100 /
1#
#3740
0#
#3745
b101 !
b101 /
1#
#3750
0#
#3755
10
b101 "
b101 .
b110 !
b110 /
1#
#3760
0#
#3765
0+
b0 L
00
b10000001 "
b10000001 .
b0 !
b0 /
1#
#3770
0#
#3775
b1 L
b100 ?
b11000011 J
b1100001100000100 H
1#
#3780
0#
#3785
b11 E
b11 L
1#
#3790
0#
#3795
b100 E
b100 L
1#
#3800
0#
#3805
1+
b100 '
b100 D
b11000011 *
b11000011 =
1#
#3810
0#
#3815
b1110 "
b1110 .
b1 !
b1 /
1#
#3820
0#
#3825
b1 "
b1 .
b10 !
b10 /
1#
#3830
0#
#3835
b1111 "
b1111 .
b11 !
b11 /
1#
#3840
0#
#3845
b0 "
b0 .
b100 !
b100 /
1#
#3850
0#
#3855
b101 !
b101 /
1#
#3860
0#
#3865
10
b100 "
b100 .
b110 !
b110 /
1#
#3870
0#
#3875
00
0+
b0 L
b11000011 "
b11000011 .
b0 !
b0 /
1#
#3880
0#
